{
	"crew": {
		"loyalists": {
			"base": {
				"claim_1_desc": "claim_training_rooms_description",
				"claim_1_name": "claim_training_rooms",
				"claim_2_desc": "claim_vice_den_description",
				"claim_2_name": "claim_vice_den",
				"claim_3_desc": "claim_fixer_description",
				"claim_3_name": "claim_fixer",
				"claim_4_desc": "claim_informants_description",
				"claim_4_name": "claim_informants",
				"claim_5_desc": "claim_hagfish_farm_description",
				"claim_5_name": "claim_hagfish_farm",
				"claim_6_desc": "claim_victim_trophies_description",
				"claim_6_name": "claim_victim_trophies",
				"claim_7_name": "claim_turf",
				"claim_9_name": "claim_turf",
				"claim_10_desc": "claim_cover_operation_description",
				"claim_10_name": "claim_cover_operation",
				"claim_11_desc": "claim_protection_racket_description",
				"claim_11_name": "claim_protection_racket",
				"claim_12_desc": "claim_infirmary_description",
				"claim_12_name": "claim_infirmary",
				"claim_13_desc": "claim_envoy_description",
				"claim_13_name": "claim_envoy",
				"claim_14_desc": "claim_cover_identities_description",
				"claim_14_name": "claim_cover_identities",
				"claim_15_desc": "claim_city_records_description",
				"claim_15_name": "claim_city_records",
				"claim_bridge_2_3": "0",
				"claim_bridge_3_4": "0",
				"claim_bridge_6_7": "0",
				"claim_bridge_9_14": "0",
				"claim_bridge_12_13": "0",
				"claim_bridge_13_14": "0",
				"cohort1_subtype": "flagship",
				"crew_description": "crew_loyalists_description",
				"crew_xp_condition": "crew_loyalists_xp_condition",
				"hunting_grounds_type": "crew_loyalists_hunting_grounds_type",
				"hunting_grounds_description": "crew_loyalists_hunting_grounds_description",
				"setting_show_loyalty": "1",
				"upgrade_21_check_1": "1"
			},
			"crewability": ["discipline", "accord", "her_majestys_secret_service", "legitimate", "patronage", "requisition", "vendetta", "veteran"],
			"upgrade": [{
				"name": "crew_upgrade_navy_harness",
				"numboxes": "1"
			}, {
				"name": "crew_upgrade_letter_of_marque",
				"numboxes": "1"
			}, {
				"name": "crew_upgrade_elite_killers",
				"numboxes": "1"
			}, {
				"name": "crew_upgrade_elite_rovers",
				"numboxes": "1"
			}, {
				"name": "crew_upgrade_steadfast",
				"numboxes": "3"
			}]
		},
		"marauders": {
			"base": {
				"claim_1_desc": "claim_training_rooms_description",
				"claim_1_name": "claim_training_rooms",
				"claim_2_desc": "claim_vice_den_description",
				"claim_2_name": "claim_vice_den",
				"claim_3_desc": "claim_fixer_description",
				"claim_3_name": "claim_fixer",
				"claim_4_desc": "claim_informants_description",
				"claim_4_name": "claim_informants",
				"claim_5_desc": "claim_hagfish_farm_description",
				"claim_5_name": "claim_hagfish_farm",
				"claim_6_desc": "claim_victim_trophies_description",
				"claim_6_name": "claim_victim_trophies",
				"claim_7_name": "claim_turf",
				"claim_9_name": "claim_turf",
				"claim_10_desc": "claim_cover_operation_description",
				"claim_10_name": "claim_cover_operation",
				"claim_11_desc": "claim_protection_racket_description",
				"claim_11_name": "claim_protection_racket",
				"claim_12_desc": "claim_infirmary_description",
				"claim_12_name": "claim_infirmary",
				"claim_13_desc": "claim_envoy_description",
				"claim_13_name": "claim_envoy",
				"claim_14_desc": "claim_cover_identities_description",
				"claim_14_name": "claim_cover_identities",
				"claim_15_desc": "claim_city_records_description",
				"claim_15_name": "claim_city_records",
				"claim_bridge_2_3": "0",
				"claim_bridge_3_4": "0",
				"claim_bridge_6_7": "0",
				"claim_bridge_9_14": "0",
				"claim_bridge_12_13": "0",
				"claim_bridge_13_14": "0",
				"cohort1_subtype": "flagship",
				"crew_description": "crew_marauders_description",
				"crew_xp_condition": "crew_marauders_xp_condition",
				"hunting_grounds_type": "crew_marauders_hunting_grounds_type",
				"hunting_grounds_description": "crew_marauders_hunting_grounds_description",
				"upgrade_7_check_1": "1",
				"upgrade_21_check_1": "1"
			},
			"crewability": ["butchers", "armed_and_ready", "black_sails", "blood_brothers", "fiends", "hostes_humani_generis", "loose_cannons", "veteran"],
			"upgrade": [{
				"name": "crew_upgrade_bandoliers",
				"numboxes": "1"
			}, {
				"name": "crew_upgrade_letter_of_marque",
				"numboxes": "1"
			}, {
				"name": "crew_upgrade_elite_killers",
				"numboxes": "1"
			}, {
				"name": "crew_upgrade_elite_rovers",
				"numboxes": "1"
			}, {
				"name": "crew_upgrade_hardened",
				"numboxes": "3"
			}]
		},
		"phantoms": {
			"base": {
				"claim_1_desc": "claim_barracks_description",
				"claim_1_name": "claim_barracks",
				"claim_2_name": "claim_turf",
				"claim_3_desc": "claim_terrorized_citizens_description",
				"claim_3_name": "claim_terrorized_citizens",
				"claim_4_desc": "claim_informants_description",
				"claim_4_name": "claim_informants",
				"claim_5_desc": "claim_protection_racket_description",
				"claim_5_name": "claim_protection_racket",
				"claim_6_desc": "claim_fighting_pits_description",
				"claim_6_name": "claim_fighting_pits",
				"claim_7_name": "claim_turf",
				"claim_9_name": "claim_turf",
				"claim_10_name": "claim_turf",
				"claim_11_desc": "claim_infirmary_description",
				"claim_11_name": "claim_infirmary",
				"claim_12_desc": "claim_bluecoat_intimidation_description",
				"claim_12_name": "claim_bluecoat_intimidation",
				"claim_13_desc": "claim_street_fence_description",
				"claim_13_name": "claim_street_fence",
				"claim_14_desc": "claim_warehouses_description",
				"claim_14_name": "claim_warehouses",
				"claim_15_desc": "claim_bluecoat_confederates_description",
				"claim_15_name": "claim_bluecoat_confederates",
				"claim_bridge_3_4": "0",
				"claim_bridge_2_7": "0",
				"claim_bridge_12_13": "0",
				"cohort1_subtype": "flagship",
				"crew_description": "crew_phantoms_description",
				"crew_xp_condition": "crew_phantoms_xp_condition",
				"hunting_grounds_type": "crew_phantoms_hunting_grounds_type",
				"hunting_grounds_description": "crew_phantoms_hunting_grounds_description",
				"setting_show_purpose": "1",
				"upgrade_21_check_1": "1",
				"upgrade_23_check_1": "1"
			},
			"crewability": ["accursed", "anointed", "bound_in_darkness", "derelict_soul", "eye_of_the_storm", "living_legends", "skeleton_crew", "veteran"],
			"upgrade": [{
				"name": "crew_upgrade_phantom_harness",
				"numboxes": "1"
			}, {
				"name": "crew_upgrade_royal_covenant",
				"numboxes": "1"
			}, {
				"name": "crew_upgrade_elite_adepts",
				"numboxes": "1"
			}, {
				"name": "crew_upgrade_sanctum",
				"numboxes": "1"
			}, {
				"name": "crew_upgrade_doomed",
				"numboxes": "3"
			}]
		},
		"renegades": {
			"base": {
				"claim_1_desc": "claim_cloister_description",
				"claim_1_name": "claim_cloister",
				"claim_2_desc": "claim_vice_den_description",
				"claim_2_name": "claim_vice_den",
				"claim_3_desc": "claim_offertory_description",
				"claim_3_name": "claim_offertory",
				"claim_4_desc": "claim_ancient_obelisk_description",
				"claim_4_name": "claim_ancient_obelisk",
				"claim_5_desc": "claim_ancient_tower_description",
				"claim_5_name": "claim_ancient_tower",
				"claim_6_name": "claim_turf",
				"claim_7_name": "claim_turf",
				"claim_9_name": "claim_turf",
				"claim_10_name": "claim_turf",
				"claim_11_desc": "claim_spirit_well_description",
				"claim_11_name": "claim_spirit_well",
				"claim_12_desc": "claim_ancient_gate_description",
				"claim_12_name": "claim_ancient_gate",
				"claim_13_desc": "claim_sanctuary_description",
				"claim_13_name": "claim_sanctuary",
				"claim_14_desc": "claim_sacred_nexus_description",
				"claim_14_name": "claim_sacred_nexus",
				"claim_15_desc": "claim_ancient_altar_description",
				"claim_15_name": "claim_ancient_altar",
				"claim_bridge_3_4": "0",
				"claim_bridge_4_9": "0",
				"claim_bridge_6_11": "0",
				"claim_bridge_12_13": "0",
				"claim_bridge_13_14": "0",
				"cohort1_subtype": "flagship",
				"crew_description": "crew_renegades_description",
				"crew_xp_condition": "crew_renegades_xp_condition",
				"hunting_grounds_type": "crew_renegades_hunting_grounds_type",
				"hunting_grounds_description": "crew_renegades_hunting_grounds_description",
				"upgrade_13_check_1": "1",
				"upgrade_24_check_1": "1"
			},
			"crewability": ["scallywags", "all_hands", "devils_own_luck", "low_profile", "scavengers", "silver_tongues", "synchronized", "veteran"],
			"upgrade": [{
				"name": "crew_upgrade_hidden_pockets",
				"numboxes": "1"
			}, {
				"name": "crew_upgrade_letter_of_marque",
				"numboxes": "1"
			}, {
				"name": "crew_upgrade_elite_knaves",
				"numboxes": "1"
			}, {
				"name": "crew_upgrade_elite_rovers",
				"numboxes": "1"
			}, {
				"name": "crew_upgrade_fearless",
				"numboxes": "3"
			}]
		}
	},
	"playbook": {
		"commander": {
			"ability": ["expertise", "master_and_commander", "nobodys_fool", "ready_for_anything", "relentless", "self_control", "sharpshooter", "focused", "veteran"],
			"base": {
				"command": "2",
				"friends_title": "playbook_commander_friends_title",
				"gatherinfo1": "gatherinfo_what_do_they_intend",
				"gatherinfo2": "gatherinfo_how_can_I_get_them",
				"gatherinfo3": "gatherinfo_what_are_they_really",
				"gatherinfo4": "gatherinfo_what_should_I_look",
				"gatherinfo5": "gatherinfo_wheres_the_weakness",
				"gatherinfo6": "gatherinfo_whats_going_on",
				"navigate": "1",
				"playbook_description": "playbook_commander_description",
				"xp_condition": "playbook_commander_xp_condition"
			},
			"playbookitem": [{
				"bold": "1",
				"name": "playbook_item_fine_rifle",
				"numboxes": "2"
			}, {
				"bold": "1",
				"name": "playbook_item_fine_pair_of_pistols",
				"numboxes": "1"
			}, {
				"bold": "1",
				"name": "playbook_item_fine_navigational_tools",
				"numboxes": "1"
			}, {
				"name": "playbook_item_documents",
				"numboxes": "1"
			},{
				"name": "playbook_item_personal_memento",
				"numboxes": "0"
			}]
		},
		"mariner": {
			"ability": ["in_fine_condition", "bombardier", "no_rest_for_the_weary", "saboteur", "sawbones", "shipshape", "to_the_brink", "sturdy", "veteran"],
			"base": {
				"char_cohort_name": "trained_pet",
				"char_cohort_subtype": "nuisance",
				"friends_title": "playbook_mariner_friends_title",
				"gatherinfo1": "gatherinfo_what_do_they_intend",
				"gatherinfo2": "gatherinfo_how_can_I_get_them",
				"gatherinfo3": "gatherinfo_what_are_they_really",
				"gatherinfo4": "gatherinfo_what_should_I_look",
				"gatherinfo5": "gatherinfo_wheres_the_weakness",
				"gatherinfo6": "gatherinfo_whats_going_on",
				"navigate": "2",
				"patch": "1",
				"playbook_description": "playbook_mariner_description",
				"setting_show_cohort": "1",
				"xp_condition": "playbook_mariner_xp_condition"
			},
			"playbookitem": [{
				"bold": "1",
				"name": "playbook_item_fine_bottle_of_rum",
				"numboxes": "0"
			}, {
				"bold": "1",
				"name": "playbook_item_fine_carpenters_tools",
				"numboxes": "1"
			}, {
				"bold": "1",
				"name": "playbook_item_fine_explosive",
				"numboxes": "1"
			}, {
				"name": "playbook_item_trained_pet_mariner",
				"numboxes": "1"
			}, {
				"name": "playbook_item_warding_talisman",
				"numboxes": "0"
			}]
		},
		"occultist": {
			"ability": ["from_the_deep", "black_spot", "born_in_brine", "familiar", "iron_will", "ritual", "tempest", "warded", "veteran"],
			"base": {
				"attune": "2",
				"char_cohort_name": "trained_pet",
				"char_cohort_subtype": "familiar",
				"friends_title": "playbook_occultist_friends_title",
				"gatherinfo1": "gatherinfo_what_do_they_intend",
				"gatherinfo2": "gatherinfo_how_can_I_get_them",
				"gatherinfo3": "gatherinfo_what_are_they_really",
				"gatherinfo4": "gatherinfo_what_should_I_look",
				"gatherinfo5": "gatherinfo_wheres_the_weakness",
				"gatherinfo6": "gatherinfo_whats_going_on",
				"playbook_description": "playbook_occultist_description",
				"scan": "1",
				"xp_condition": "playbook_occultist_xp_condition"
			},
			"playbookitem": [{
				"bold": "1",
				"name": "playbook_item_fine_whalebone_knife",
				"numboxes": "1"
			}, {
				"bold": "1",
				"name": "playbook_item_fine_warding_talisman",
				"numboxes": "0"
			}, {
				"name": "playbook_item_fanciful_map",
				"numboxes": "1"
			}, {
				"name": "playbook_item_occult_focus",
				"numboxes": "0"
			}, {
				"name": "playbook_item_trained_pet_occultist",
				"numboxes": "1"
			}]
		},
		"reaver": {
			"ability": ["savage", "armed_to_the_teeth", "bodyguard", "fearsome_reputation", "not_without_a_fight", "resilient", "right_bastard", "battleborn", "veteran"],
			"base": {
				"brawl": "2",
				"command": "1",
				"friends_title": "playbook_reaver_friends_title",
				"gatherinfo1": "gatherinfo_what_do_they_intend",
				"gatherinfo2": "gatherinfo_how_can_I_get_them",
				"gatherinfo3": "gatherinfo_what_are_they_really",
				"gatherinfo4": "gatherinfo_what_should_I_look",
				"gatherinfo5": "gatherinfo_wheres_the_weakness",
				"gatherinfo6": "gatherinfo_whats_going_on",
				"playbook_description": "playbook_reaver_description",
				"xp_condition": "playbook_reaver_xp_condition"
			},
			"playbookitem": [{
				"bold": "1",
				"name": "playbook_item_fine_brace_of_pistols",
				"numboxes": "2"
			}, {
				"bold": "1",
				"name": "playbook_item_fine_hand_weapon",
				"numboxes": "1"
			}, {
				"bold": "1",
				"name": "playbook_item_fine_heavy_armor",
				"numboxes": "1"
			}, {
				"name": "playbook_item_scary_weapon_or_tool",
				"numboxes": "1"
			}, {
				"name": "playbook_item_manacles_and_chain",
				"numboxes": "1"
			}]
		},
		"scoundrel": {
			"ability": ["jack_of_all_trades", "ambush", "honest_face", "i_know_a_guy", "lead_from_behind", "set_the_stage", "weaving_the_web", "weasel", "veteran"],
			"base": {
				"friends_title": "playbook_scoundrel_friends_title",
				"sway": "2",
				"gatherinfo1": "gatherinfo_what_do_they_intend",
				"gatherinfo2": "gatherinfo_how_can_I_get_them",
				"gatherinfo3": "gatherinfo_what_are_they_really",
				"gatherinfo4": "gatherinfo_what_should_I_look",
				"gatherinfo5": "gatherinfo_wheres_the_weakness",
				"gatherinfo6": "gatherinfo_whats_going_on",
				"playbook_description": "playbook_scoundrel_description",
				"xp_condition": "playbook_scoundrel_xp_condition",
				"skulk": "1"
			},
			"playbookitem": [{
				"bold": "1",
				"name": "playbook_item_fine_concealed_weapon",
				"numboxes": "0"
			}, {
				"name": "playbook_item_forgery_kit",
				"numboxes": "1"
			}, {
				"name": "playbook_item_loaded_dice",
				"numboxes": "0"
			}, {
				"name": "playbook_item_lockpicking_tools",
				"numboxes": "0"
			}, {
				"name": "playbook_item_sleeping_powder",
				"numboxes": "0"
			}]
		},
		"swashbuckler": {
			"ability": ["daredevil", "against_the_odds", "cloak_and_dagger", "momentum", "nemesis", "one_of_us", "reflexes", "irrepressible", "veteran"],
			"base": {
				"friends_title": "playbook_swashbuckler_friends_title",
				"consort": "1",
				"gatherinfo1": "gatherinfo_what_do_they_intend",
				"gatherinfo2": "gatherinfo_how_can_I_get_them",
				"gatherinfo3": "gatherinfo_what_are_they_really",
				"gatherinfo4": "gatherinfo_what_should_I_look",
				"gatherinfo5": "gatherinfo_wheres_the_weakness",
				"gatherinfo6": "gatherinfo_whats_going_on",
				"playbook_description": "playbook_swashbuckler_description",
				"xp_condition": "playbook_swashbuckler_xp_condition",
				"vault": "2"
			},
			"playbookitem": [{
				"bold": "1",
				"name": "playbook_item_fine_blade",
				"numboxes": "1"
			}, {
				"bold": "1",
				"name": "playbook_item_fine_set_of_clothes",
				"numboxes": "1"
			}, {
				"bold": "1",
				"name": "playbook_item_fine_bottle_of_wine",
				"numboxes": "1"
			}, {
				"bold": "1",
				"name": "playbook_item_fine_musical_instrument",
				"numboxes": "1"
			}, {
				"name": "playbook_item_improvised_weapons",
				"numboxes": "0"
			}]
		}
	},
	"factions": {
		"factions1": [{
			"name": "faction_the_council",
			"tier": "IV",
			"hold": "S",
			"notes": "The five most influential captains of Pelican Rock, who maintain order on the island and command its forces in times of war."
		}, {
			"name": "faction_the_shipwrights",
			"tier": "IV",
			"hold": "W",
			"notes": "Expert carpenters and sailors responsible for the maintenance of Flotsam."
		}, {
			"name": "faction_the_duchess",
			"tier": "III",
			"hold": "S",
			"notes": "An infamous crew of raiders, newly arrived in the Carrascan and looking to make their mark."
		}, {
			"name": "faction_the_ospreys",
			"tier": "III",
			"hold": "S",
			"notes": "Flotsam's peacekeeping force, who live up in the masts and riggings of the city."
		}, {
			"name": "faction_the_razor",
			"tier": "III",
			"hold": "S",
			"notes": "A notorious pirate ship known for daring raids and cunning ambushes."
		}, {
			"name": "faction_the_retribution",
			"tier": "III",
			"hold": "S",
			"notes": "A Segamban crew that targets slaving ships."
		}, {
			"name": "faction_the_silver_hand",
			"tier": "III",
			"hold": "W",
			"notes": "A privateering vessel bolstered by informants and spies throughout the ocean."
		}, {
			"name": "faction_the_windrunner",
			"tier": "III",
			"hold": "W",
			"notes": "A crew of rovers who swoop in after storms to snatch up weakened targets."
		}, {
			"name": "faction_the_armistice",
			"tier": "II",
			"hold": "S",
			"notes": "A veteran crew of pirates seeking revenge for their slain captain."
		}, {
			"name": "faction_the_falcon",
			"tier": "II",
			"hold": "S",
			"notes": "An upstart crew pursuing renown and influence by any means necessary."
		}, {
			"name": "faction_the_red_handers",
			"tier": "II",
			"hold": "S",
			"notes": "Masked mercenaries and killers for hire."
		}, {
			"name": "faction_the_requiem",
			"tier": "II",
			"hold": "S",
			"notes": "An honorable crew led by a priest-turned-pirate."
		}, {
			"name": "faction_the_revenge",
			"tier": "II",
			"hold": "S",
			"notes": "Valdesian sailors who were left to die after a battle at sea, now sworn enemies of the crown."
		}, {
			"name": "faction_the_bleeding_dove",
			"tier": "II",
			"hold": "W",
			"notes": "A ship crewed by vicious killers, who fly a distress flag to lure their victims in."
		}, {
			"name": "faction_the_hangmans_noose",
			"tier": "II",
			"hold": "W",
			"notes": "A resolute crew that preys on corrupt merchants and other pirates."
		}, {
			"name": "faction_the_plain_devil",
			"tier": "II",
			"hold": "W",
			"notes": "Enterprising privateers with a letter of marque from every nation."
		}, {
			"name": "faction_wreckers",
			"tier": "II",
			"hold": "W",
			"notes": "A gang of former pirates who lure ships to their doom with false signal lights."
		}, {
			"name": "faction_the_zephyr",
			"tier": "II",
			"hold": "W",
			"notes": "A swift ship with impossibly good luck in picking its targets."
		}, {
			"name": "faction_the_gadfly",
			"tier": "I",
			"hold": "S",
			"notes": "A privateering ship that habitually lurks near Revellan trade routes."
		}, {
			"name": "faction_the_laughing_bastard",
			"tier": "I",
			"hold": "S",
			"notes": "A versatile crew of merry swashbucklers."
		}, {
			"name": "faction_the_sirena",
			"tier": "I",
			"hold": "S",
			"notes": "A crew of pirates that recruits new hands from the ships they capture."
		}, {
			"name": "faction_the_furie",
			"tier": "I",
			"hold": "W",
			"notes": "Inexperienced pirates on the lookout for a big score."
		}, {
			"name": "faction_the_northern_wind",
			"tier": "I",
			"hold": "W",
			"notes": "Fugitives running from the crown's justice on a stolen ship."
		}],
		"factions2": [{
			"name": "faction_imperial_navy",
			"tier": "VI",
			"hold": "W",
			"notes": "Fleets of disciplined soldiers and skilled officers."
		}, {
			"name": "faction_langdon_and_grey",
			"tier": "IV",
			"hold": "S",
			"notes": "A Valdesian trading company with a monopoly on trade in the Carrascan Sea."
		}, {
			"name": "faction_brightwater_isles_citizens",
			"tier": "IV",
			"hold": "W",
			"notes": "Inhabitants of the Brightwater Isles."
		}, {
			"name": "faction_redcliff_company",
			"tier": "III",
			"hold": "S",
			"notes": "Established arms dealers, looking to expand into other markets."
		}, {
			"name": "faction_new_valdesia_citizens",
			"tier": "III",
			"hold": "W",
			"notes": "Inhabitants of New Valdesia."
		}, {
			"name": "faction_the_viceroy",
			"tier": "III",
			"hold": "W",
			"notes": "A navy ship given full authority to maintain order in Valdesia’s colonies."
		}, {
			"name": "faction_the_wolves",
			"tier": "III",
			"hold": "W",
			"notes": "A savage band of pirate hunters."
		}, {
			"name": "faction_the_torn_banner",
			"tier": "II",
			"hold": "S",
			"notes": "A navy ship posing as pirates to spy on other nations’ privateers."
		}, {
			"name": "faction_castaways_citizens",
			"tier": "II",
			"hold": "W",
			"notes": "Inhabitants of the Castaways."
		}],
		"factions3": [{
			"name": "faction_drowners",
			"tier": "IV",
			"hold": "W",
			"notes": "Dead sailors returned to a strange semblance of life."
		}, {
			"name": "faction_the_circle",
			"tier": "III",
			"hold": "S",
			"notes": "A collection of occultists working together to influence events in the Carrascan."
		}, {
			"name": "faction_the_maelstrom",
			"tier": "II",
			"hold": "S",
			"notes": "A ghost ship perpetually surrounded by storms."
		}, {
			"name": "faction_the_sisterhood_of_the_depths",
			"tier": "II",
			"hold": "S",
			"notes": "Sea-witches of noble birth, trying to harness the ocean’s power."
		}, {
			"name": "faction_the_undying",
			"tier": "II",
			"hold": "S",
			"notes": "Waturey tribes who are inhabited by the spirits of their ancestors."
		}, {
			"name": "faction_the_calming_tide",
			"tier": "II",
			"hold": "W",
			"notes": "A sea cult that adopts and trains occultists who struggle to control their magic."
		}, {
			"name": "faction_fort_crimson",
			"tier": "II",
			"hold": "W",
			"notes": "A former slave colony whose prisoners swore a dark pact to win their freedom."
		}, {
			"name": "faction_the_terminus",
			"tier": "II",
			"hold": "W",
			"notes": "A crew of ghostly sailors roaming the Hollows."
		}, {
			"name": "faction_the_harbingers",
			"tier": "I",
			"hold": "S",
			"notes": "An apocalyptic cult that worships leviathans."
		}],
		"factions4": [{
			"name": "faction_revellan_navy",
			"tier": "V",
			"hold": "S",
			"notes": "A rapidly growing fleet of loyal Revellan soldiers."
		}, {
			"name": "faction_the_seven_stars",
			"tier": "V",
			"hold": "S",
			"notes": "A council of priests and governors controlling Revellan policy in the Carrascan."
		}, {
			"name": "faction_greater_cuiverra_citizens",
			"tier": "III",
			"hold": "S",
			"notes": "Inhabitants of Greater Cuiverra."
		}, {
			"name": "faction_knights_of_abrandus",
			"tier": "III",
			"hold": "S",
			"notes": "An order of zealots fighting a perennial war against the Meghran corsairs."
		}, {
			"name": "faction_ministry_of_trade",
			"tier": "III",
			"hold": "S",
			"notes": "Revellan officials who sponsor merchant expeditions."
		}, {
			"name": "faction_the_golden_lilies",
			"tier": "III",
			"hold": "W",
			"notes": "An elite squadron of the Revellan navy, mostly drawn from the nobility."
		}, {
			"name": "faction_starlight_vigil",
			"tier": "II",
			"hold": "S",
			"notes": "Maleurite missionaries spreading Revellan doctrine across the Carrascan."
		}, {
			"name": "faction_lesser_cuiverra_citizens",
			"tier": "II",
			"hold": "W",
			"notes": "Inhabitants of Lesser Cuiverra."
		}, {
			"name": "faction_the_whispering_breeze",
			"tier": "I",
			"hold": "S",
			"notes": "Agents of the Revellan monarchy, who keep tabs on affairs in the colonies."
		}],
		"factions5": [{
			"name": "faction_makote_pact",
			"tier": "III",
			"hold": "W",
			"notes": "An organization of Waturey tribes, banding together for survival and defense."
		}, {
			"name": "faction_meghran_corsairs",
			"tier": "III",
			"hold": "W",
			"notes": "Zealots launching raids and disrupting trade routes throughout the Carrascan."
		}, {
			"name": "faction_southshore_maroons",
			"tier": "II",
			"hold": "S",
			"notes": "Segamban and Ourogan refugees claiming territory in southern New Valdesia."
		}, {
			"name": "faction_storms_children",
			"tier": "II",
			"hold": "S",
			"notes": "Ourogan raiders targeting the colonists who settled in their former homes."
		}, {
			"name": "faction_southern_reach_natives",
			"tier": "II",
			"hold": "W",
			"notes": "Indigenous inhabitants of the Southern Reach."
		}, {
			"name": "faction_the_path_of_embers",
			"tier": "II",
			"hold": "W",
			"notes": "A network of indigenous spies who infiltrate and sabotage slave plantations."
		}, {
			"name": "faction_castaways_natives",
			"tier": "I",
			"hold": "S",
			"notes": "Indigenous inhabitants of the Castaways."
		}, {
			"name": "faction_woodworms",
			"tier": "I",
			"hold": "S",
			"notes": "Waturey saboteurs who rob and capsize ships docked on nearby islands."
		}, {
			"name": "faction_carrowan_natives",
			"tier": "I",
			"hold": "W",
			"notes": "Indigenous inhabitants of Carrowan."
		}],
		"factions6": [{
			"name": "faction_house_pavoni",
			"tier": "V",
			"hold": "S",
			"notes": "The powerful family that controls most of Sallice’s colonies."
		}, {
			"name": "faction_house_camillieri",
			"tier": "IV",
			"hold": "W",
			"notes": "A disgraced noble family trying to regain their power by controlling Carrascan trade."
		}, {
			"name": "faction_monarchi",
			"tier": "III",
			"hold": "S",
			"notes": "High-end bounty hunters, hired by Sallice’s elite."
		}, {
			"name": "faction_vespolis_gate_citizens",
			"tier": "III",
			"hold": "W",
			"notes": "Inhabitants of Vespoli’s Gate."
		}, {
			"name": "faction_agostine_isles_citizens",
			"tier": "II",
			"hold": "S",
			"notes": "Inhabitants of the Agostine Isles."
		}, {
			"name": "faction_seekers_guild",
			"tier": "II",
			"hold": "S",
			"notes": "An organization of explorers and adventurers, searching for glory and renown."
		}, {
			"name": "faction_house_carrascos",
			"tier": "II",
			"hold": "W",
			"notes": "A separatist movement hoping to create an independent Carrascan territory."
		}, {
			"name": "faction_brightflower_guild",
			"tier": "I",
			"hold": "S",
			"notes": "Explorers who scour the Carrascan Sea for orchids and other valuable flora."
		}, {
			"name": "faction_cascabel_guild",
			"tier": "I",
			"hold": "S",
			"notes": "Skilled blacksmiths renowned for their cannons."
		}]
	},
	"actions": {
		"insight": ["finesse", "navigate", "patch", "scan"],
		"prowess": ["blast", "brawl", "skulk", "vault"],
		"resolve": ["attune", "command", "consort", "sway"]
	},
	"traumas": {
		"normal": ["cold", "haunted", "obsessed", "paranoid", "reckless", "soft", "unstable", "vicious"],
		"ghost": ["chaotic", "destructive", "furious", "obsessive", "territorial", "savage"],
		"hull": ["clanking", "leaking", "fixated", "smoking", "sparking", "unstable"]
	},
	"items": [{
		"name": "a_blade_or_two",
		"description": "a_blade_or_two_description",
		"numboxes": "1"
	}, {
		"name": "a_firearm",
		"description": "a_firearm_description",
		"numboxes": "2"
	}, {
		"name": "a_pistol",
		"description": "a_pistol_description",
		"numboxes": "1",
		"short": "1"
	}, {
		"name": "another_pistol",
		"description": "a_pistol_description",
		"numboxes": "1",
		"short": "1"
	}, {
		"name": "a_large_weapon",
		"description": "a_large_weapon_description",
		"numboxes": "2"
	}, {
		"name": "an_unusual_weapon",
		"description": "an_unusual_weapon_description",
		"numboxes": "1"
	}, {
		"name": "armor",
		"description": "armor_description",
		"numboxes": "2",
		"short": "1"
	}, {
		"name": "+heavy",
		"description": "+heavy_description",
		"numboxes": "2",
		"short": "1"
	}, {
		"name": "a_bottle_of_rum",
		"description": "a_bottle_of_rum_description",
		"numboxes": "2"
	}, {
		"name": "a_crude_explosive",
		"description": "a_crude_explosive_description",
		"numboxes": "1"
	}, {
		"name": "a_musical_instrument",
		"description": "a_musical_instrument_description",
		"numboxes": "1"
	}, {
		"name": "a_torch_or_lantern",
		"description": "a_torch_or_lantern_description",
		"numboxes": "1"
	}, {
		"name": "climbing_gear",
		"description": "climbing_gear_description",
		"numboxes": "1"
	}, {
		"name": "carpenters_tools",
		"description": "carpenters_tools_description",
		"numboxes": "1"
	}, {
		"name": "navigational_tools",
		"description": "navigational_tools_description",
		"numboxes": "1"
	}],
	"alchemicals": [],
	"translatedDefaults": {
		"cohort1_name": "cohort",
		"contacts_title": "contacts",
		"factions_title": "factions_title",
		"factions1_header": "factions1",
		"factions2_header": "factions2",
		"factions3_header": "factions3",
		"factions4_header": "factions4",
		"factions5_header": "factions5",
		"friends_title": "friends",
		"setting_stress_label": "stress",
		"setting_trauma_label": "trauma",
		"upgrade_6_name": "armor",
		"upgrade_6_description": "upgrade_armor_description",
		"upgrade_7_name": "cannons",
		"upgrade_7_description": "upgrade_cannons_description",
		"upgrade_8_name": "boltholes",
		"upgrade_8_description": "upgrade_boltholes_description",
		"upgrade_9_name": "hull",
		"upgrade_9_description": "upgrade_hull_description",
		"upgrade_10_name": "coffers",
		"upgrade_10_description": "upgrade_coffers_description",
		"upgrade_11_name": "rudder",
		"upgrade_11_description": "upgrade_rudder_description",
		"upgrade_12_name": "hidden_cannons",
		"upgrade_12_description": "upgrade_hidden_cannons_description",
		"upgrade_13_name": "sails",
		"upgrade_13_description": "upgrade_sails_description",
		"upgrade_14_name": "oars",
		"upgrade_14_description": "upgrade_oars_description",
		"upgrade_15_name": "charts",
		"upgrade_15_description": "upgrade_charts_description",
		"upgrade_16_name": "overgunned",
		"upgrade_16_description": "upgrade_overgunned_description",
		"upgrade_17_name": "tools",
		"upgrade_17_description": "upgrade_tools_description",
		"upgrade_18_name": "prow_ram",
		"upgrade_18_description": "upgrade_prow_ram_description",
		"upgrade_19_name": "weapons",
		"upgrade_19_description": "upgrade_weapons_description",
		"upgrade_20_name": "specialty_shot",
		"upgrade_20_description": "upgrade_specialty_shot_description",

		"upgrade_21_name": "insight",
		"upgrade_21_description": "upgrade_insight_description",
		"upgrade_22_name": "prowess",
		"upgrade_22_description": "upgrade_prowess_description",
		"upgrade_23_name": "resolve",
		"upgrade_23_description": "upgrade_resolve_description",
		"upgrade_24_name": "personal",
		"upgrade_24_description": "upgrade_personal_description",
		"upgrade_25_name": "mastery",
		"upgrade_25_description": "upgrade_mastery_description",
		"xp_condition2": "xp_beliefs",
		"xp_condition3": "xp_vice"
	},
	"defaultValues": {
		"attune": "0",
		"blast": "0",
		"brawl": "0",
		"claim_bridge_10_15": "1",
		"claim_bridge_12_13": "1",
		"claim_bridge_13_14": "1",
		"claim_bridge_2_3": "1",
		"claim_bridge_2_7": "1",
		"claim_bridge_3_4": "1",
		"claim_bridge_4_9": "1",
		"claim_bridge_6_11": "1",
		"claim_bridge_6_7": "1",
		"claim_bridge_9_14": "1",
		"cohort1_subtype": "",
		"cohort1_type": "crew",
		"command": "0",
		"consort": "0",
		"finesse": "0",
		"navigate": "0",
		"patch": "0",
		"scan": "0",
		"setting_extra_stress": "0",
		"setting_load_h": "6",
		"setting_show_loyalty": "0",
		"setting_show_purpose": "0",
		"setting_traumata_set": "normal",
		"setting_vice_type": "normal",
		"skulk": "0",
		"sway": "0",
		"upgrade_10_check_1": "0",
		"upgrade_14_check_1": "0",
		"upgrade_20_check_1": "0",
		"upgrade_21_check_1": "0",
		"upgrade_22_check_1": "0",
		"upgrade_6_check_1": "0",
		"vault": "0"
	},
	"maxFriendsPerPlaybook": 5,
	"maxContactsPerCrew": 6,
	"friendlessPlaybooks": ["ghost", "hull"],
	"translatedCrewAttributes": ["claim_1_name", "claim_2_name", "claim_3_name", "claim_4_name", "claim_5_name", "claim_6_name", "claim_7_name", "claim_8_name", "claim_9_name", "claim_10_name", "claim_11_name", "claim_12_name", "claim_13_name", "claim_14_name", "claim_15_name", "claim_1_desc", "claim_2_desc", "claim_3_desc", "claim_4_desc", "claim_5_desc", "claim_6_desc", "claim_7_desc", "claim_8_desc", "claim_9_desc", "claim_10_desc", "claim_11_desc", "claim_12_desc", "claim_13_desc", "claim_14_desc", "claim_15_desc", "cohort1_description", "cohort1_name", "cohort1_subtype", "crew_description", "crew_xp_condition", "hunting_grounds_type", "hunting_grounds_description", "upgrade_6_name", "upgrade_8_name"],
	"translatedPlaybookAttributes": ["char_cohort_name", "char_cohort_subtype", "friends_title", "gatherinfo1", "gatherinfo2", "gatherinfo3", "gatherinfo4", "gatherinfo5", "gatherinfo6", "playbook_description", "setting_stress_label", "setting_trauma_label", "xp_condition", "xp_condition2", "xp_condition3"]
}
